Tidy coral example
…
# need to get daily mean temperature from the bouy data, then join with benthic
buoy_daily <- buoy %>%
  mutate(temp_clean = as.numeric(gsub("999.0", NA, WTMP_degC))) %>%   # first need to get rid of 999's
  group_by(date) %>%   # then group by date
  summarise(mean_temp = mean(temp_clean, na.rm=T))  # then get mean temperature

buoy_daily

## # A tibble: 357 x 2
##    date       mean_temp
##    <chr>          <dbl>
##  1 2010-01-01      25.0
##  2 2010-01-02      25.1
##  3 2010-01-03      25.1
##  4 2010-01-04      24.8
##  5 2010-01-05      25.0
##  6 2010-01-06      24.7
##  7 2010-01-07      25.1
##  8 2010-01-08      25.0
##  9 2010-01-09      25.1
## 10 2010-01-10      25.0
## # ... with 347 more rows

# now merge mean temps with benthic 
# join datasets
bb_join <- benthic %>%
  left_join(buoy_daily, by = "date")

bb_join

## # A tibble: 4,925 x 7
##    id_name               point     x     y id_date      date     mean_temp
##    <chr>                 <int> <int> <int> <chr>        <chr>        <dbl>
##  1 Pocillopora meandrina     1  1773  1000 #2010-03-12# 2010-03      23.1
##  2 Turf algae                2  2308   194 #2010-03-12# 2010-03      23.1
##  3 Coralline algae           3  1700  1782 #2010-03-12# 2010-03      23.1
##  4 Coralline algae           4  2470   584 #2010-03-12# 2010-03      23.1
##  5 Coralline algae           5   314  1145 #2010-03-12# 2010-03      23.1
##  6 Turf algae                6   198  1660 #2010-03-12# 2010-03      23.1
##  7 Turf algae                7  2557  1050 #2010-03-12# 2010-03      23.1
##  8 Turf algae                8  1890  1145 #2010-03-12# 2010-03      23.1
##  9 Coralline algae           9  2334  1411 #2010-03-12# 2010-03      23.1
## 10 Coralline algae          10  1646  1391 #2010-03-12# 2010-03      23.1
## # ... with 4,915 more rows
